20.58.160.154:8004
20.58.161.47:8004
20.63.99.27:8004
40.115.112.100:8004
20.238.83.84:8004
20.238.47.173:8004
20.238.47.92:8004
40.127.96.10:8004
20.238.82.193:8004
20.238.48.166:8004
20.238.83.129:8004
20.238.81.115:8004
20.238.80.71:8004
20.151.129.229:8004
20.225.250.72:8004
20.225.249.250:8004
20.225.251.64:8004
20.225.252.5:8004
20.225.252.225:8004
13.65.186.175:8004
13.66.71.19:8004
13.66.52.81:8004
13.66.50.53:8004
13.66.50.235:8004
20.116.102.91:8004
13.76.228.189:8004
13.76.229.111:8004
13.76.226.30:8004
13.76.196.150:8004
104.215.147.88:8004
13.76.156.128:8004
13.76.155.181:8004
104.215.146.141:8004
104.215.146.4:8004
104.215.146.202:8004
20.151.129.50:8004
20.203.248.84:8004
20.203.248.89:8004
20.203.250.187:8004
20.203.250.235:8004
20.203.250.120:8004
20.203.251.51:8004
20.203.249.251:8004
20.208.42.12:8004
20.208.40.67:8004
20.203.250.143:8004
20.116.98.66:8004
51.104.235.56:8004
20.77.90.34:8004
20.77.91.153:8004
20.77.91.47:8004
20.77.92.58:8004
20.77.90.29:8004
51.132.38.211:8004
20.77.92.194:8004
20.77.95.105:8004
20.58.33.157:8004
20.63.96.176:8004
20.123.178.48:8004
20.23.230.248:8004
20.123.177.136:8004
20.229.232.47:8004
20.101.66.189:8004
20.229.232.48:8004
20.123.178.147:8004
20.123.179.191:8004
20.229.233.10:8004
20.23.230.75:8004
20.104.246.141:8004
20.245.218.47:8004
20.245.116.240:8004
20.245.116.134:8004
20.245.116.188:8004
20.245.116.206:8004
20.245.117.26:8004
20.245.117.203:8004
20.245.117.217:8004
20.237.152.203:8004
20.237.224.30:8004
20.104.242.41:8004
20.230.177.45:8004
20.230.177.68:8004
20.230.177.99:8004
20.230.177.105:8004
20.230.177.145:8004
20.230.178.43:8004
20.230.177.168:8004
20.230.177.209:8004
20.230.178.116:8004
20.230.178.190:8004
20.104.30.23:8004
20.118.132.94:8004
20.118.132.102:8004
20.118.129.182:8004
20.118.131.249:8004
20.118.129.5:8004
20.118.132.120:8004
20.118.130.112:8004
20.118.130.127:8004
20.118.130.109:8004
20.118.132.115:8004
20.116.102.88:8004
20.221.223.105:8004
52.159.81.171:8004
20.236.80.248:8004
20.25.218.71:8004
20.221.219.164:8004
20.236.81.11:8004
20.236.81.76:8004
20.236.81.123:8004
20.236.81.155:8004
20.236.81.217:8004
20.58.165.200:8004
20.198.108.193:8004
20.204.76.48:8004
20.198.75.107:8004
20.198.104.53:8004
20.198.79.106:8004
20.204.76.125:8004
20.204.76.166:8004
20.198.108.172:8004
20.204.76.171:8004
20.198.105.252:8004
20.58.163.2:8004
52.176.120.152:8004
52.176.208.96:8004
52.176.127.202:8004
52.189.98.38:8004
52.189.97.96:8004
52.165.254.122:8004
52.189.99.50:8004
52.189.97.6:8004
52.173.14.245:8004
52.173.9.70:8004
20.58.166.67:8004
20.239.141.157:8004
20.239.142.48:8004
20.239.54.149:8004
20.205.9.214:8004
20.205.10.108:8004
20.205.10.63:8004
20.205.10.126:8004
20.205.9.88:8004
20.205.13.162:8004
20.205.13.107:8004
20.58.167.222:8004
13.82.133.196:8004
13.82.81.217:8004
13.92.158.142:8004
13.92.156.117:8004
13.92.157.229:8004
13.90.78.66:8004
13.72.64.201:8004
13.92.154.114:8004
13.82.87.71:8004
13.92.155.26:8004
20.58.167.17:8004
20.242.89.147:8004
20.110.189.211:8004
20.242.93.34:8004
20.65.59.254:8004
20.65.61.52:8004
20.65.61.43:8004
20.110.169.54:8004
20.110.169.28:8004
20.110.172.250:8004
20.110.174.157:8004
20.58.167.254:8004
20.216.169.29:8004
20.216.171.1:8004
20.216.171.203:8004
20.199.109.212:8004
20.216.172.123:8004
20.216.173.192:8004
20.216.174.69:8004
20.216.170.54:8004
20.58.164.53:8004
20.222.17.26:8004
20.222.17.39:8004
20.222.17.47:8004
20.222.16.234:8004
20.222.16.254:8004
20.222.17.11:8004
20.222.17.74:8004
20.222.16.186:8004
20.222.17.106:8004
20.222.17.122:8004
20.92.112.81:8004
20.196.198.16:8004
20.196.193.129:8004
20.214.106.239:8004
20.249.56.10:8004
20.214.106.136:8004
20.196.193.175:8004
20.249.56.215:8004
20.196.199.244:8004
20.196.199.248:8004
20.249.56.228:8004
2
20.58.160.154:8004
20.58.161.47:8004
20.63.99.27:8004
40.115.112.100:8004
20.238.83.84:8004
20.238.47.173:8004
20.238.47.92:8004
40.127.96.10:8004
20.238.82.193:8004
20.238.48.166:8004
20.238.83.129:8004
20.238.81.115:8004
20.238.80.71:8004
20.151.129.229:8004
20.225.250.72:8004
20.225.249.250:8004
20.225.251.64:8004
20.225.252.5:8004
20.225.252.225:8004
13.65.186.175:8004
13.66.71.19:8004
13.66.52.81:8004
13.66.50.53:8004
13.66.50.235:8004
20.116.102.91:8004
13.76.228.189:8004
13.76.229.111:8004
13.76.226.30:8004
13.76.196.150:8004
104.215.147.88:8004
13.76.156.128:8004
13.76.155.181:8004
104.215.146.141:8004
104.215.146.4:8004
104.215.146.202:8004
20.151.129.50:8004
20.203.248.84:8004
20.203.248.89:8004
20.203.250.187:8004
20.203.250.235:8004
20.203.250.120:8004
20.203.251.51:8004
20.203.249.251:8004
20.208.42.12:8004
20.208.40.67:8004
20.203.250.143:8004
20.116.98.66:8004
51.104.235.56:8004
20.77.90.34:8004
20.77.91.153:8004
20.77.91.47:8004
20.77.92.58:8004
20.77.90.29:8004
51.132.38.211:8004
20.77.92.194:8004
20.77.95.105:8004
20.58.33.157:8004
20.63.96.176:8004
20.123.178.48:8004
20.23.230.248:8004
20.123.177.136:8004
20.229.232.47:8004
20.101.66.189:8004
20.229.232.48:8004
20.123.178.147:8004
20.123.179.191:8004
20.229.233.10:8004
20.23.230.75:8004
20.104.246.141:8004
20.245.218.47:8004
20.245.116.240:8004
20.245.116.134:8004
20.245.116.188:8004
20.245.116.206:8004
20.245.117.26:8004
20.245.117.203:8004
20.245.117.217:8004
20.237.152.203:8004
20.237.224.30:8004
20.104.242.41:8004
20.230.177.45:8004
20.230.177.68:8004
20.230.177.99:8004
20.230.177.105:8004
20.230.177.145:8004
20.230.178.43:8004
20.230.177.168:8004
20.230.177.209:8004
20.230.178.116:8004
20.230.178.190:8004
20.104.30.23:8004
20.118.132.94:8004
20.118.132.102:8004
20.118.129.182:8004
20.118.131.249:8004
20.118.129.5:8004
20.118.132.120:8004
20.118.130.112:8004
20.118.130.127:8004
20.118.130.109:8004
20.118.132.115:8004
20.116.102.88:8004
20.221.223.105:8004
52.159.81.171:8004
20.236.80.248:8004
20.25.218.71:8004
20.221.219.164:8004
20.236.81.11:8004
20.236.81.76:8004
20.236.81.123:8004
20.236.81.155:8004
20.236.81.217:8004
20.58.165.200:8004
20.198.108.193:8004
20.204.76.48:8004
20.198.75.107:8004
20.198.104.53:8004
20.198.79.106:8004
20.204.76.125:8004
20.204.76.166:8004
20.198.108.172:8004
20.204.76.171:8004
20.198.105.252:8004
20.58.163.2:8004
52.176.120.152:8004
52.176.208.96:8004
52.176.127.202:8004
52.189.98.38:8004
52.189.97.96:8004
52.165.254.122:8004
52.189.99.50:8004
52.189.97.6:8004
52.173.14.245:8004
52.173.9.70:8004
20.58.166.67:8004
20.239.141.157:8004
20.239.142.48:8004
20.239.54.149:8004
20.205.9.214:8004
20.205.10.108:8004
20.205.10.63:8004
20.205.10.126:8004
20.205.9.88:8004
20.205.13.162:8004
20.205.13.107:8004
20.58.167.222:8004
13.82.133.196:8004
13.82.81.217:8004
13.92.158.142:8004
13.92.156.117:8004
13.92.157.229:8004
13.90.78.66:8004
13.72.64.201:8004
13.92.154.114:8004
13.82.87.71:8004
13.92.155.26:8004
20.58.167.17:8004
20.242.89.147:8004
20.110.189.211:8004
20.242.93.34:8004
20.65.59.254:8004
20.65.61.52:8004
20.65.61.43:8004
20.110.169.54:8004
20.110.169.28:8004
20.110.172.250:8004
20.110.174.157:8004
20.58.167.254:8004
20.216.169.29:8004
20.216.171.1:8004
20.216.171.203:8004
20.199.109.212:8004
20.216.172.123:8004
20.216.173.192:8004
20.216.174.69:8004
20.216.170.54:8004
20.58.164.53:8004
20.222.17.26:8004
20.222.17.39:8004
20.222.17.47:8004
20.222.16.234:8004
20.222.16.254:8004
20.222.17.11:8004
20.222.17.74:8004
20.222.16.186:8004
20.222.17.106:8004
20.222.17.122:8004
20.92.112.81:8004
20.196.198.16:8004
20.196.193.129:8004
20.214.106.239:8004
20.249.56.10:8004
20.214.106.136:8004
20.196.193.175:8004
20.249.56.215:8004
20.196.199.244:8004
20.196.199.248:8004
20.249.56.228:8004
20.213.125.159:8004
20.213.126.83:8004
20.151.143.85:8004
20.234.108.82:8004
20.223.147.19:8004
20.238.87.91:8004
20.223.150.207:8004
168.63.69.149:8004
20.223.192.63:8004
20.123.18.221:8004
20.123.19.45:8004
20.234.110.167:8004
168.63.60.89:8004
20.63.69.69:8004
70.37.89.106:8004
70.37.91.104:8004
13.65.245.96:8004
65.52.39.169:8004
13.84.174.35:8004
70.37.164.32:8004
13.65.246.227:8004
13.84.173.6:8004
13.84.168.109:8004
13.84.135.98:8004
20.104.116.91:8004
20.212.200.193:8004
20.212.201.214:8004
20.212.149.194:8004
20.212.219.254:8004
20.212.147.217:8004
20.212.31.0:8004
20.205.184.160:8004
20.212.219.209:8004
20.212.149.41:8004
20.212.24.113:8004
20.151.111.218:8004
20.203.254.75:8004
20.203.254.79:8004
20.203.254.93:8004
20.203.253.37:8004
20.203.254.122:8004
20.203.254.166:8004
20.203.253.232:8004
20.203.249.132:8004
20.203.249.167:8004
20.203.251.240:8004
20.151.111.132:8004
20.117.102.182:8004
13.87.90.163:8004
51.142.104.214:8004
51.142.105.22:8004
13.87.89.95:8004
13.87.89.129:8004
51.142.104.150:8004
51.142.106.78:8004
20.117.103.28:8004
51.142.108.23:8004
20.63.65.241:8004
13.80.0.220:8004
52.137.16.142:8004
40.68.201.223:8004
13.81.244.221:8004
20.61.57.34:8004
20.61.61.16:8004
13.81.245.63:8004
51.137.95.13:8004
52.142.252.89:8004
20.229.70.191:8004
20.151.110.142:8004
20.237.144.122:8004
20.237.144.131:8004
20.237.145.252:8004
20.237.148.230:8004
20.237.151.38:8004
20.237.145.83:8004
20.237.148.93:8004
20.237.147.230:8004
20.237.145.85:8004
20.237.144.23:8004
20.151.111.136:8004
20.151.105.60:8004
20.118.129.169:8004
20.118.129.82:8004
20.118.129.85:8004
20.118.131.184:8004
20.118.131.138:8004
20.118.132.194:8004
20.118.132.247:8004
20.118.133.16:8004
20.118.133.41:8004
20.118.133.43:8004
20.63.67.63:8004
23.100.76.31:8004
23.100.76.48:8004
23.100.76.87:8004
23.100.76.125:8004
23.100.77.67:8004
23.100.77.159:8004
23.100.77.186:8004
23.100.77.192:8004
23.100.77.240:8004
23.100.72.49:8004
20.213.124.220:8004
20.235.65.139:8004
20.235.65.195:8004
20.235.65.167:8004
20.235.65.170:8004
20.235.66.24:8004
20.235.66.47:8004
20.207.198.131:8004
20.219.31.15:8004
20.219.31.40:8004
20.207.199.138:8004
20.211.22.72:8004
52.173.253.22:8004
40.77.52.126:8004
52.173.206.179:8004
52.173.200.18:8004
40.77.50.58:8004
13.89.51.10:8004
52.165.169.164:8004
52.165.218.45:8004
13.89.53.242:8004
40.86.17.222:8004
20.58.182.250:8004
20.187.80.120:8004
20.187.87.75:8004
20.187.87.106:8004
20.205.99.211:8004
20.187.96.206:8004
20.205.98.134:8004
20.187.98.62:8004
20.187.98.185:8004
20.205.96.220:8004
20.205.114.39:8004
20.92.241.79:8004
13.82.151.76:8004
40.114.25.26:8004
52.152.164.11:8004
40.114.25.5:8004
52.152.163.178:8004
20.228.142.22:8004
20.232.157.147:8004
20.25.17.33:8004
20.231.3.30:8004
20.232.155.82:8004
20.92.242.22:8004
20.110.56.87:8004
20.242.40.3:8004
20.242.43.16:8004
20.242.43.60:8004
20.242.43.168:8004
20.242.40.54:8004
20.242.40.138:8004
20.242.42.56:8004
20.211.188.5:8004
20.111.57.237:8004
20.111.60.124:8004
20.111.57.255:8004
20.111.61.206:8004
20.111.59.230:8004
20.199.104.222:8004
20.199.105.82:8004
20.199.107.222:8004
20.216.169.82:8004
20.216.169.119:8004
20.211.188.227:8004
20.89.141.207:8004
20.222.33.116:8004
20.210.230.197:8004
20.222.36.11:8004
20.222.1.196:8004
20.222.0.205:8004
20.222.3.36:8004
20.222.1.194:8004
20.222.3.105:8004
20.222.3.248:8004
20.211.189.19:8004
20.214.138.190:8004
20.214.137.16:8004
20.214.139.113:8004
20.214.139.147:8004
20.214.139.136:8004
20.214.139.40:8004
20.214.138.205:8004
20.214.141.42:8004
20.214.139.140:8004
20.214.140.37:8004
20.213.120.198:8004
20.213.121.241:8004
20.203.129.81:8004
20.203.215.193:8004
20.250.16.37:8004
20.203.215.188:8004
20.250.16.31:8004
20.203.132.195:8004
20.203.214.134:8004
20.203.214.58:8004
20.250.16.102:8004
20.203.214.237:8004
20.90.249.145:8004
20.90.255.167:8004
20.90.253.144:8004
20.117.75.112:8004
20.117.76.115:8004
13.87.65.217:8004
13.87.66.84:8004
13.87.66.58:8004
13.87.66.101:8004
13.87.66.218:8004
137.116.212.1:8004
137.116.211.109:8004
137.117.196.58:8004
137.116.212.197:8004
137.117.209.175:8004
137.116.210.113:8004
23.97.244.13:8004
137.116.216.136:8004
168.63.124.163:8004
168.63.121.85:8004
20.213.122.221:8004
20.207.201.234:8004
20.207.204.9:8004
20.207.204.236:8004
20.207.207.17:8004
20.219.32.53:8004
20.207.204.102:8004
20.219.33.83:8004
20.207.201.104:8004
20.219.33.113:8004
20.207.202.14:8004
20.211.16.157:8004
40.86.10.148:8004
40.122.151.141:8004
40.113.194.251:8004
40.83.46.186:8004
52.165.183.96:8004
40.77.105.125:8004
40.77.5.49:8004
40.77.12.199:8004
40.122.149.244:8004
40.86.1.245:8004
20.211.20.63:8004
104.208.78.172:8004
20.205.4.182:8004
20.205.5.57:8004
20.205.4.83:8004
20.205.4.253:8004
20.205.7.103:8004
104.208.72.99:8004
20.205.6.39:8004
20.205.2.80:8004
20.205.7.139:8004
20.211.19.223:8004
20.211.20.40:8004
20.211.20.233:8004
20.213.121.126:8004
52.140.222.213:8004
20.222.37.82:8004
20.222.38.168:8004
20.89.43.72:8004
20.89.43.77:8004
20.89.141.129:8004
20.89.46.194:8004
20.222.112.149:8004
20.222.113.13:8004
20.222.112.248:8004
20.211.20.251:8004
20.214.107.254:8004
20.196.195.31:8004
20.196.194.131:8004
20.196.194.202:8004
20.196.192.57:8004
20.196.194.21:8004
20.214.107.174:8004
20.214.108.251:8004
20.214.108.224:8004
20.214.108.213:8004
